06Assignments/assignment1/alu/alu.vcd
$date
	Thu Feb 12 16:11:44 2026
$end
$version
	Icarus Verilog
$end
$timescale
	1s
$end
$scope module tb_alu $end
$var wire 4 ! out [3:0] $end
$var reg 4 " a [3:0] $end
$var reg 4 # b [3:0] $end
$var reg 2 $ sel [1:0] $end
$scope module uut $end
$var wire 4 % a [3:0] $end
$var wire 4 & b [3:0] $end
$var wire 2 ' sel [1:0] $end
$var wire 4 ( xor_gate [3:0] $end
$var wire 4 ) sum [3:0] $end
$var wire 4 * out [3:0] $end
$var wire 4 + or_gate [3:0] $end
$var wire 1 , cout $end
$var wire 4 - and_gate [3:0] $end
$scope module ra1 $end
$var wire 4 . a [3:0] $end
$var wire 4 / b [3:0] $end
$var wire 1 0 carry $end
$var wire 1 1 cin $end
$var wire 4 2 sum [3:0] $end
$var wire 1 , cout $end
$var wire 1 3 c3 $end
$var wire 1 4 c2 $end
$var wire 1 5 c1 $end
$scope module fa0 $end
$var wire 1 6 a $end
$var wire 1 7 b $end
$var wire 1 1 cin $end
$var wire 1 5 cout $end
$var wire 1 8 g0 $end
$var wire 1 9 g1 $end
$var wire 1 : p $end
$var wire 1 ; sum $end
$upscope $end
$scope module fa1 $end
$var wire 1 < a $end
$var wire 1 = b $end
$var wire 1 5 cin $end
$var wire 1 4 cout $end
$var wire 1 > g0 $end
$var wire 1 ? g1 $end
$var wire 1 @ p $end
$var wire 1 A sum $end
$upscope $end
$scope module fa2 $end
$var wire 1 B a $end
$var wire 1 C b $end
$var wire 1 4 cin $end
$var wire 1 3 cout $end
$var wire 1 D g0 $end
$var wire 1 E g1 $end
$var wire 1 F p $end
$var wire 1 G sum $end
$upscope $end
$scope module fa3 $end
$var wire 1 H a $end
$var wire 1 I b $end
$var wire 1 3 cin $end
$var wire 1 , cout $end
$var wire 1 J g0 $end
$var wire 1 K g1 $end
$var wire 1 L p $end
$var wire 1 M sum $end
$upscope $end
$upscope $end
$upscope $end
$upscope $end
$enddefinitions $end
$comment Show the parameter values. $end
$dumpall
$end
#0
$dumpvars
1M
1L
0K
0J
1I
0H
0G
0F
0E
0D
0C
0B
1A
1@
0?
0>
1=
0<
1;
1:
09
08
07
16
05
04
03
b1011 2
01
00
b1010 /
b1 .
b0 -
0,
b1011 +
b0 *
b1011 )
b1011 (
b0 '
b1010 &
b1 %
b0 $
b1010 #
b1 "
b0 !
$end
#10
b1011 !
b1011 *
b1 $
b1 '
#20
b10 $
b10 '
#30
b11 $
b11 '
#40
b0 !
b0 *
b0 $
b0 '
#50
b1011 !
b1011 *
b1 $
b1 '
#60
b10 $
b10 '
#70
b11 $
b11 '
#80
b0 !
b0 *
b0 $
b0 '
