09syn_fifo/fifo.vcd
$date
	Thu Mar  5 09:50:18 2026
$end
$version
	Icarus Verilog
$end
$timescale
	1s
$end
$scope module tb_fifo $end
$var wire 1 ! full $end
$var wire 1 " empty $end
$var wire 8 # dout [7:0] $end
$var parameter 32 $ depth $end
$var parameter 32 % width $end
$var reg 1 & clk $end
$var reg 8 ' din [7:0] $end
$var reg 1 ( rd_en $end
$var reg 1 ) rst $end
$var reg 1 * wr_en $end
$scope module uut $end
$var wire 1 & clk $end
$var wire 8 + din [7:0] $end
$var wire 1 ( rd_en $end
$var wire 1 ) rst $end
$var wire 1 * wr_en $end
$var wire 1 ! full $end
$var wire 1 " empty $end
$var parameter 32 , depth $end
$var parameter 32 - width $end
$var reg 8 . dout [7:0] $end
$var reg 3 / rd_ptr [2:0] $end
$var reg 3 0 wr_ptr [2:0] $end
$upscope $end
$upscope $end
$enddefinitions $end
$comment Show the parameter values. $end
$dumpall
b1000 -
b100 ,
b1000 %
b100 $
$end
#0
$dumpvars
b0 0
b0 /
b0 .
b1101 +
x*
1)
x(
b1101 '
0&
b0 #
1"
0!
$end
#5
1&
#10
0&
0(
1*
b1011 '
b1011 +
0)
#15
0"
b1 0
1&
#20
0&
b1010 '
b1010 +
#25
b10 0
1&
#30
0&
b11 '
b11 +
#35
b11 0
1&
#40
0&
b1100 '
b1100 +
#45
b100 0
1&
#50
0&
1(
0*
b1011 '
b1011 +
#55
b1 /
b1011 #
b1011 .
1&
#60
0&
b1010 '
b1010 +
#65
b10 /
b1010 #
b1010 .
1&
#70
0&
b11 '
b11 +
#75
b11 /
b11 #
b11 .
1&
#80
0&
b1100 '
b1100 +
#85
1"
b100 /
b1100 #
b1100 .
1&
