09fifo/asyn_fifo/fifo.vcd
$date
	Sat Mar  7 21:42:11 2026
$end
$version
	Icarus Verilog
$end
$timescale
	1s
$end
$scope module tb_fifo $end
$var wire 1 ! full $end
$var wire 1 " empty $end
$var wire 8 # data_out [7:0] $end
$var parameter 32 $ depth $end
$var parameter 32 % width $end
$var reg 8 & data_in [7:0] $end
$var reg 1 ' r_en $end
$var reg 1 ( rclk $end
$var reg 1 ) rst_n $end
$var reg 1 * w_en $end
$var reg 1 + wclk $end
$var reg 1 , wrst_n $end
$scope module uut $end
$var wire 8 - data_in [7:0] $end
$var wire 8 . data_out [7:0] $end
$var wire 1 " empty $end
$var wire 1 ! full $end
$var wire 1 ' r_en $end
$var wire 1 ( rclk $end
$var wire 1 ) rst_n $end
$var wire 1 * w_en $end
$var wire 1 + wclk $end
$var wire 1 , wrst_n $end
$var wire 4 / w_ptr [3:0] $end
$var wire 1 0 tfull $end
$var wire 1 1 tempty $end
$var wire 4 2 r_ptr [3:0] $end
$var wire 4 3 g_wptr_sync [3:0] $end
$var wire 4 4 g_wptr [3:0] $end
$var wire 4 5 g_rptr_sync [3:0] $end
$var wire 4 6 g_rptr [3:0] $end
$var wire 8 7 d_out [7:0] $end
$var parameter 33 8 a $end
$var parameter 33 9 b $end
$var parameter 32 : depth $end
$var parameter 32 ; width $end
$scope module a1 $end
$var wire 1 + clk $end
$var wire 1 , rst_n $end
$var wire 4 < din [3:0] $end
$var parameter 33 = width $end
$var reg 4 > dout [3:0] $end
$var reg 4 ? q [3:0] $end
$upscope $end
$scope module a2 $end
$var wire 1 ( clk $end
$var wire 1 ) rst_n $end
$var wire 4 @ din [3:0] $end
$var parameter 33 A width $end
$var reg 4 B dout [3:0] $end
$var reg 4 C q [3:0] $end
$upscope $end
$scope module a3 $end
$var wire 8 D data_in [7:0] $end
$var wire 1 ' r_en $end
$var wire 1 ( rclk $end
$var wire 1 * w_en $end
$var wire 1 + wclk $end
$var wire 4 E w_ptr [3:0] $end
$var wire 4 F r_ptr [3:0] $end
$var wire 1 0 full $end
$var wire 1 1 empty $end
$var parameter 32 G depth $end
$var parameter 32 H width $end
$var reg 8 I data_out [7:0] $end
$upscope $end
$scope module a4 $end
$var wire 1 J full_n $end
$var wire 4 K g_rptr_sync [3:0] $end
$var wire 4 L g_wptr_n [3:0] $end
$var wire 1 * w_en $end
$var wire 1 + wclk $end
$var wire 1 , wrst_n $end
$var wire 4 M b_wptr_n [3:0] $end
$var parameter 33 N depth $end
$var parameter 33 O width $end
$var reg 4 P b_wptr [3:0] $end
$var reg 1 0 full $end
$var reg 4 Q g_wptr [3:0] $end
$upscope $end
$scope module a5 $end
$var wire 4 R g_rptr_n [3:0] $end
$var wire 4 S g_wptr_sync [3:0] $end
$var wire 1 ' r_en $end
$var wire 1 ( rclk $end
$var wire 1 ) rst_n $end
$var wire 1 T empty_n $end
$var wire 4 U b_rptr_n [3:0] $end
$var parameter 33 V width $end
$var reg 4 W b_rptr [3:0] $end
$var reg 1 1 empty $end
$var reg 4 X g_rptr [3:0] $end
$upscope $end
$upscope $end
$upscope $end
$enddefinitions $end
$comment Show the parameter values. $end
$dumpall
b100 V
b100 O
b100 N
b1000 H
b1000 G
b100 A
b100 =
b1000 ;
b1000 :
b100 9
b100 8
b1000 %
b1000 $
$end
#0
$dumpvars
b0 X
b0 W
b0x U
xT
b0 S
b0x R
b0 Q
b0 P
b0x M
b0x L
b0 K
0J
bx I
b0 F
b0 E
b1101 D
b0 C
b0 B
b0 @
b0 ?
b0 >
b0 <
bx 7
b0 6
b0 5
b0 4
b0 3
b0 2
01
00
b0 /
bx .
b1101 -
0,
0+
x*
0)
0(
x'
b1101 &
bx #
0"
0!
$end
#5
1+
#10
x"
x1
b0x 6
b0x <
b0x X
b0x 2
b0x F
b0x W
xT
b0x R
b1 L
b0x U
b1 M
0+
0'
1*
b1011 &
b1011 -
b1011 D
1)
1,
1(
#15
b11 L
b10 M
b0x ?
b1 4
b1 @
b1 Q
b1 /
b1 E
b1 P
1+
#20
0+
b1010 &
b1010 -
b1010 D
0(
#25
b10 L
b11 M
b11 4
b11 @
b11 Q
b10 /
b10 E
b10 P
b0x 5
b0x >
b0x K
1+
#30
b11 C
0+
b11 &
b11 -
b11 D
1(
#35
0J
b110 L
b100 M
b10 4
b10 @
b10 Q
b11 /
b11 E
b11 P
1+
#40
0+
b1100 &
b1100 -
b1100 D
0(
#45
b111 L
b101 M
b110 4
b110 @
b110 Q
b100 /
b100 E
b100 P
1+
#50
0T
b11 3
b11 B
b11 S
b110 C
0+
b1011 &
b1011 -
b1011 D
1(
#55
xJ
b101 L
b110 M
b111 4
b111 @
b111 Q
b101 /
b101 E
b101 P
1+
#60
0+
b1010 &
b1010 -
b1010 D
0(
#65
b10x L
b11x M
x!
x0
b101 4
b101 @
b101 Q
b110 /
b110 E
b110 P
1+
#70
b110 3
b110 B
b110 S
b101 C
0"
01
xT
bx R
bx U
0+
1'
b11 &
b11 -
b11 D
1(
#75
bx L
bx M
b10x 4
b10x @
b10x Q
b11x /
b11x E
b11x P
1+
#80
0+
b1100 &
b1100 -
b1100 D
0(
#85
bx 4
bx @
bx Q
bx /
bx E
bx P
1+
#90
x"
x1
bx 6
bx <
bx X
bx 2
bx F
bx W
b101 3
b101 B
b101 S
bx C
0+
b1011 &
b1011 -
b1011 D
1(
#95
bx ?
1+
#100
0+
b1010 &
b1010 -
b1010 D
0(
#105
bx 5
bx >
bx K
1+
#110
bx 3
bx B
bx S
0+
b11 &
b11 -
b11 D
1(
#115
1+
#120
0+
b1100 &
b1100 -
b1100 D
0(
#125
1+
#130
0+
b1011 &
b1011 -
b1011 D
1(
#135
1+
#140
0+
b1010 &
b1010 -
b1010 D
0(
#145
1+
#150
0+
b11 &
b11 -
b11 D
1(
#155
1+
#160
0+
b1100 &
b1100 -
b1100 D
0(
