02combinational_circuits/mux/mux8:1/mux.vcd
$date
	Wed Feb  4 22:40:24 2026
$end
$version
	Icarus Verilog
$end
$timescale
	1s
$end
$scope module tb_mux $end
$var wire 1 ! y $end
$var reg 8 " i [7:0] $end
$var reg 3 # s [2:0] $end
$scope module uut $end
$var wire 8 $ i [7:0] $end
$var wire 3 % s [2:0] $end
$var reg 1 ! y $end
$upscope $end
$upscope $end
$enddefinitions $end
$comment Show the parameter values. $end
$dumpall
$end
#0
$dumpvars
b0 %
b10100001 $
b0 #
b10100001 "
1!
$end
#10
0!
b1 #
b1 %
#20
b10 #
b10 %
#30
b11 #
b11 %
#40
1!
b100 #
b100 %
#50
b101 #
b101 %
#60
0!
b110 #
b110 %
#70
1!
b111 #
b111 %
