09fifo/fifo_without /fifo.vcd
$date
	Sat Mar  7 09:54:35 2026
$end
$version
	Icarus Verilog
$end
$timescale
	1s
$end
$scope module tb_fifo $end
$var wire 3 ! wr_ptr [2:0] $end
$var wire 3 " rd_ptr [2:0] $end
$var wire 1 # full $end
$var wire 1 $ empty $end
$var wire 8 % dout [7:0] $end
$var parameter 32 & depth $end
$var parameter 32 ' width $end
$var reg 1 ( clk $end
$var reg 8 ) din [7:0] $end
$var reg 1 * rd_en $end
$var reg 1 + rst $end
$var reg 1 , wr_en $end
$scope module uut $end
$var wire 1 ( clk $end
$var wire 8 - din [7:0] $end
$var wire 1 # full $end
$var wire 1 * rd_en $end
$var wire 1 + rst $end
$var wire 1 , wr_en $end
$var wire 1 $ empty $end
$var parameter 32 . depth $end
$var parameter 32 / width $end
$var reg 8 0 dout [7:0] $end
$var reg 3 1 rd_ptr [2:0] $end
$var reg 3 2 wr_ptr [2:0] $end
$upscope $end
$upscope $end
$enddefinitions $end
$comment Show the parameter values. $end
$dumpall
b1000 /
b100 .
b1000 '
b100 &
$end
#0
$dumpvars
b0 2
b0 1
b0 0
b1101 -
x,
1+
x*
b1101 )
0(
b0 %
1$
0#
b0 "
b0 !
$end
#5
1(
#10
0(
0*
1,
b1011 )
b1011 -
0+
#15
0$
b1 !
b1 2
1(
#20
0(
b1010 )
b1010 -
#25
b10 !
b10 2
1(
#30
0(
b11 )
b11 -
#35
b11 !
b11 2
1(
#40
0(
b1100 )
b1100 -
#45
1#
b100 !
b100 2
1(
#50
0(
b1011 )
b1011 -
#55
1(
#60
0(
b1010 )
b1010 -
#65
1(
#70
0(
1*
b11 )
b11 -
#75
0#
b1 "
b1 1
b1011 %
b1011 0
1(
#80
0(
b1100 )
b1100 -
#85
b10 "
b10 1
b1010 %
b1010 0
b101 !
b101 2
1(
#90
0(
b1011 )
b1011 -
#95
b11 "
b11 1
b11 %
b11 0
b110 !
b110 2
1(
#100
0(
b1010 )
b1010 -
#105
b100 "
b100 1
b1100 %
b1100 0
b111 !
b111 2
1(
#110
0(
b11 )
b11 -
#115
b101 "
b101 1
bx %
bx 0
b0 !
b0 2
1(
#120
0(
b1100 )
b1100 -
#125
b110 "
b110 1
b1 !
b1 2
1(
#130
0(
b1011 )
b1011 -
#135
b111 "
b111 1
b10 !
b10 2
1(
#140
0(
b1010 )
b1010 -
#145
b0 "
b0 1
b11 !
b11 2
1(
#150
0(
b11 )
b11 -
#155
b1 "
b1 1
b1100 %
b1100 0
b100 !
b100 2
1(
#160
0(
b1100 )
b1100 -
#165
b10 "
b10 1
b1011 %
b1011 0
b101 !
b101 2
1(
